1.00000 0.00000
0.99900 0.00051
0.99503 0.00211
0.99009 0.00386
0.98514 0.00550
0.98021 0.00708
0.97527 0.00862
0.97034 0.01013
0.96049 0.01309
0.95063 0.01600
0.94078 0.01888
0.92106 0.02459
0.90134 0.03027
0.88159 0.03592
0.86182 0.04153
0.84202 0.04711
0.82219 0.05264
0.80232 0.05812
0.78242 0.06354
0.76248 0.06886
0.74250 0.07408
0.72249 0.07917
0.70244 0.08412
0.68235 0.08890
0.66223 0.09351
0.64206 0.09792
0.62187 0.10213
0.60163 0.10609
0.58137 0.10981
0.56107 0.11326
0.54074 0.11644
0.52038 0.11933
0.50000 0.12191
0.47959 0.12416
0.45916 0.12606
0.43871 0.12760
0.41825 0.12874
0.39776 0.12945
0.37727 0.12974
0.35678 0.12956
0.33628 0.12891
0.31578 0.12777
0.29529 0.12613
0.27481 0.12399
0.25435 0.12136
0.23390 0.11823
0.21347 0.11459
0.19307 0.11041
0.17270 0.10564
0.15237 0.10024
0.13210 0.09415
0.11189 0.08730
0.09177 0.07956
0.08175 0.07529
0.07176 0.07073
0.06182 0.06582
0.05193 0.06049
0.04702 0.05764
0.04212 0.05465
0.03726 0.05150
0.03242 0.04817
0.02761 0.04465
0.02285 0.04091
0.01813 0.03691
0.01348 0.03258
0.01164 0.03072
0.00982 0.02877
0.00893 0.02776
0.00803 0.02672
0.00715 0.02564
0.00628 0.02452
0.00541 0.02337
0.00456 0.02216
0.00372 0.02089
0.00291 0.01956
0.00211 0.01816
0.00134 0.01666
0.00060 0.01505
0.00025 0.01419
-0.00009 0.01329
-0.00041 0.01234
-0.00070 0.01132
-0.00097 0.01023
-0.00121 0.00903
-0.00129 0.00852
-0.00136 0.00798
-0.00142 0.00741
-0.00146 0.00680
-0.00148 0.00615
-0.00148 0.00544
-0.00144 0.00464
-0.00140 0.00420
-0.00134 0.00371
-0.00125 0.00317
-0.00111 0.00254
-0.00088 0.00174
-0.00068 0.00120
0.00000 0.00000
0.00078 -0.00113
0.00108 -0.00161
0.00151 -0.00230
0.00185 -0.00282
0.00214 -0.00326
0.00240 -0.00365
0.00264 -0.00400
0.00308 -0.00461
0.00348 -0.00514
0.00386 -0.00562
0.00422 -0.00606
0.00456 -0.00647
0.00489 -0.00684
0.00521 -0.00720
0.00597 -0.00800
0.00670 -0.00872
0.00741 -0.00937
0.00809 -0.00997
0.00875 -0.01052
0.00940 -0.01104
0.01066 -0.01199
0.01189 -0.01285
0.01309 -0.01363
0.01428 -0.01435
0.01544 -0.01503
0.01659 -0.01566
0.01772 -0.01625
0.01885 -0.01680
0.01997 -0.01734
0.02107 -0.01784
0.02218 -0.01833
0.02436 -0.01924
0.02652 -0.02010
0.03187 -0.02203
0.03715 -0.02376
0.04239 -0.02533
0.04758 -0.02679
0.05274 -0.02813
0.05788 -0.02937
0.06298 -0.03052
0.06807 -0.03159
0.07818 -0.03353
0.08824 -0.03524
0.09825 -0.03677
0.10823 -0.03817
0.12811 -0.04058
0.14790 -0.04259
0.16763 -0.04426
0.18730 -0.04562
0.20693 -0.04669
0.22653 -0.04750
0.24610 -0.04806
0.26565 -0.04839
0.28519 -0.04850
0.30471 -0.04835
0.32422 -0.04795
0.34372 -0.04729
0.36322 -0.04637
0.38273 -0.04519
0.40224 -0.04376
0.42175 -0.04212
0.44129 -0.04026
0.46084 -0.03822
0.48041 -0.03601
0.50000 -0.03366
0.51962 -0.03118
0.53926 -0.02859
0.55893 -0.02593
0.57863 -0.02319
0.59837 -0.02040
0.61813 -0.01757
0.63794 -0.01473
0.65777 -0.01189
0.67765 -0.00909
0.69756 -0.00634
0.71751 -0.00367
0.73750 -0.00111
0.75752 0.00130
0.77758 0.00355
0.79768 0.00559
0.81781 0.00738
0.83798 0.00887
0.85818 0.01003
0.87841 0.01080
0.89866 0.01112
0.91894 0.01090
0.93922 0.01002
0.94937 0.00928
0.95951 0.00829
0.96966 0.00703
0.97473 0.00627
0.97979 0.00540
0.98486 0.00442
0.98991 0.00327
0.99497 0.00190
0.99900 0.00050
1.00000 0.00000
